-5.09402E+01	 4.66400E+03
-4.88086E+01	 4.69100E+03
-4.66778E+01	 4.64700E+03
-4.45478E+01	 4.68500E+03
-4.24186E+01	 4.70300E+03
-4.02901E+01	 4.66800E+03
-3.81624E+01	 4.68500E+03
-3.60355E+01	 4.76000E+03
-3.39094E+01	 4.76300E+03
-3.17841E+01	 4.74400E+03
-2.96595E+01	 4.76900E+03
-2.75358E+01	 4.76000E+03
-2.54128E+01	 4.85700E+03
-2.32906E+01	 4.90900E+03
-2.11691E+01	 5.06100E+03
-1.90485E+01	 5.18100E+03
-1.69286E+01	 5.42600E+03
-1.48095E+01	 5.87400E+03
-1.26911E+01	 6.60100E+03
-1.05736E+01	 8.50900E+03
-8.45679E+00	 1.38810E+04
-6.34078E+00	 2.88390E+04
-4.22555E+00	 6.55350E+04
-2.11109E+00	 6.55350E+04
 2.59050E-03	 6.55350E+04
 2.11550E+00	 6.55350E+04
 4.22764E+00	 6.55350E+04
 6.33900E+00	 6.55350E+04
 8.44959E+00	 6.55350E+04
 1.05594E+01	 6.55350E+04
 1.26685E+01	 6.55350E+04
 1.47767E+01	 6.55350E+04
 1.68842E+01	 6.55350E+04
 1.89910E+01	 6.55350E+04
 2.10969E+01	 6.55350E+04
 2.32021E+01	 5.62260E+04
 2.53065E+01	 2.49520E+04
 2.74102E+01	 1.16690E+04
 2.95131E+01	 8.42700E+03
 3.16152E+01	 7.84500E+03
 3.37165E+01	 7.72400E+03
 3.58171E+01	 7.41300E+03
 3.79169E+01	 7.24200E+03
 4.00160E+01	 7.01200E+03
 4.21143E+01	 6.79900E+03
 4.42118E+01	 6.60800E+03
 4.63085E+01	 6.75900E+03
 4.84045E+01	 6.92400E+03
 5.04997E+01	 7.25600E+03
 5.25942E+01	 7.74700E+03
 5.46879E+01	 8.49900E+03
 5.67808E+01	 9.52100E+03
 5.88730E+01	 1.10330E+04
 6.09644E+01	 1.25940E+04
 6.30550E+01	 1.37590E+04
 6.51449E+01	 1.45230E+04
 6.72340E+01	 1.56920E+04
 6.93223E+01	 1.54040E+04
 7.14099E+01	 1.43090E+04
 7.34967E+01	 1.28370E+04
 7.55828E+01	 1.13890E+04
 7.76681E+01	 1.00720E+04
 7.97526E+01	 9.23400E+03
 8.18364E+01	 8.65800E+03
 8.39194E+01	 8.20700E+03
 8.60017E+01	 7.97200E+03
 8.80832E+01	 7.77200E+03
 9.01640E+01	 7.73800E+03
 9.22440E+01	 7.86400E+03
 9.43232E+01	 7.77300E+03
 9.64017E+01	 7.74500E+03
 9.84794E+01	 7.68900E+03
 1.00556E+02	 7.81400E+03
 1.02633E+02	 7.69100E+03
 1.04708E+02	 7.64400E+03
 1.06783E+02	 7.62700E+03
 1.08857E+02	 7.54900E+03
 1.10930E+02	 7.56900E+03
 1.13002E+02	 7.61800E+03
 1.15074E+02	 7.59200E+03
 1.17145E+02	 7.53700E+03
 1.19215E+02	 7.42200E+03
 1.21284E+02	 7.54000E+03
 1.23353E+02	 7.47800E+03
 1.25421E+02	 7.42100E+03
 1.27488E+02	 7.37900E+03
 1.29555E+02	 7.37800E+03
 1.31620E+02	 7.26100E+03
 1.33685E+02	 7.28800E+03
 1.35749E+02	 7.26900E+03
 1.37813E+02	 7.25600E+03
 1.39875E+02	 7.28600E+03
 1.41937E+02	 7.31600E+03
 1.43998E+02	 7.28500E+03
 1.46059E+02	 7.20300E+03
 1.48119E+02	 7.22800E+03
 1.50177E+02	 7.15000E+03
 1.52236E+02	 7.27000E+03
 1.54293E+02	 7.20200E+03
 1.56350E+02	 7.15300E+03
 1.58406E+02	 7.21400E+03
 1.60461E+02	 7.17900E+03
 1.62515E+02	 7.22100E+03
 1.64569E+02	 7.06300E+03
 1.66622E+02	 7.12500E+03
 1.68674E+02	 7.07400E+03
 1.70726E+02	 7.05900E+03
 1.72776E+02	 7.16200E+03
 1.74826E+02	 7.20700E+03
 1.76875E+02	 7.15200E+03
 1.78924E+02	 7.18000E+03
 1.80972E+02	 6.99500E+03
 1.83019E+02	 6.88300E+03
 1.85065E+02	 6.85700E+03
 1.87110E+02	 6.89800E+03
 1.89155E+02	 6.95200E+03
 1.91199E+02	 6.97300E+03
 1.93243E+02	 7.01200E+03
 1.95285E+02	 7.01700E+03
 1.97327E+02	 6.88800E+03
 1.99368E+02	 6.96400E+03
 2.01408E+02	 6.89800E+03
 2.03448E+02	 6.93700E+03
 2.05487E+02	 6.93500E+03
 2.07525E+02	 6.81000E+03
 2.09562E+02	 6.86400E+03
 2.11599E+02	 6.93600E+03
 2.13635E+02	 6.86300E+03
 2.15670E+02	 6.86400E+03
 2.17705E+02	 6.88900E+03
 2.19738E+02	 6.92100E+03
 2.21771E+02	 6.80200E+03
 2.23803E+02	 6.83300E+03
 2.25835E+02	 6.86400E+03
 2.27866E+02	 6.84300E+03
 2.29896E+02	 6.80500E+03
 2.31925E+02	 6.83600E+03
 2.33954E+02	 6.87800E+03
 2.35981E+02	 6.87400E+03
 2.38008E+02	 6.77500E+03
 2.40035E+02	 6.87300E+03
 2.42060E+02	 6.80300E+03
 2.44085E+02	 6.74200E+03
 2.46110E+02	 6.72000E+03
 2.48133E+02	 6.76900E+03
 2.50156E+02	 6.75400E+03
 2.52178E+02	 6.77600E+03
 2.54199E+02	 6.74700E+03
 2.56219E+02	 6.70100E+03
 2.58239E+02	 6.63600E+03
 2.60258E+02	 6.59700E+03
 2.62277E+02	 6.74900E+03
 2.64294E+02	 6.73500E+03
 2.66311E+02	 6.76600E+03
 2.68327E+02	 6.74200E+03
 2.70343E+02	 6.66400E+03
 2.72357E+02	 6.62600E+03
 2.74371E+02	 6.53100E+03
 2.76385E+02	 6.63900E+03
 2.78397E+02	 6.63800E+03
 2.80409E+02	 6.59100E+03
 2.82420E+02	 6.67200E+03
 2.84430E+02	 6.71200E+03
 2.86440E+02	 6.69700E+03
 2.88449E+02	 6.64100E+03
 2.90457E+02	 6.61000E+03
 2.92464E+02	 6.62600E+03
 2.94471E+02	 6.65100E+03
 2.96477E+02	 6.62800E+03
 2.98482E+02	 6.52000E+03
 3.00487E+02	 6.54200E+03
 3.02491E+02	 6.58500E+03
 3.04494E+02	 6.57100E+03
 3.06496E+02	 6.56200E+03
 3.08498E+02	 6.58400E+03
 3.10499E+02	 6.49000E+03
 3.12499E+02	 6.61900E+03
 3.14499E+02	 6.61400E+03
 3.16497E+02	 6.54100E+03
 3.18495E+02	 6.61500E+03
 3.20493E+02	 6.53400E+03
 3.22489E+02	 6.49500E+03
 3.24485E+02	 6.50800E+03
 3.26480E+02	 6.48600E+03
 3.28475E+02	 6.49100E+03
 3.30469E+02	 6.51400E+03
 3.32462E+02	 6.55000E+03
 3.34454E+02	 6.59600E+03
 3.36446E+02	 6.68700E+03
 3.38437E+02	 6.59900E+03
 3.40427E+02	 6.49900E+03
 3.42416E+02	 6.50100E+03
 3.44405E+02	 6.48800E+03
 3.46393E+02	 6.45600E+03
 3.48380E+02	 6.46000E+03
 3.50367E+02	 6.49200E+03
 3.52353E+02	 6.54900E+03
 3.54338E+02	 6.45900E+03
 3.56323E+02	 6.47300E+03
 3.58306E+02	 6.46000E+03
 3.60289E+02	 6.41200E+03
 3.62272E+02	 6.45700E+03
 3.64253E+02	 6.46900E+03
 3.66234E+02	 6.37700E+03
 3.68214E+02	 6.38200E+03
 3.70194E+02	 6.40100E+03
 3.72173E+02	 6.44300E+03
 3.74151E+02	 6.37600E+03
 3.76128E+02	 6.30500E+03
 3.78105E+02	 6.29900E+03
 3.80081E+02	 6.38600E+03
 3.82056E+02	 6.42000E+03
 3.84030E+02	 6.34700E+03
 3.86004E+02	 6.33000E+03
 3.87977E+02	 6.36200E+03
 3.89950E+02	 6.43000E+03
 3.91921E+02	 6.31000E+03
 3.93892E+02	 6.26500E+03
 3.95863E+02	 6.31400E+03
 3.97832E+02	 6.36500E+03
 3.99801E+02	 6.31500E+03
 4.01769E+02	 6.41000E+03
 4.03737E+02	 6.70600E+03
 4.05704E+02	 6.78500E+03
 4.07670E+02	 6.78100E+03
 4.09635E+02	 6.57100E+03
 4.11600E+02	 6.29600E+03
 4.13564E+02	 6.32700E+03
 4.15527E+02	 6.93600E+03
 4.17489E+02	 7.91100E+03
 4.19451E+02	 8.37300E+03
 4.21412E+02	 7.71600E+03
 4.23373E+02	 6.72800E+03
 4.25333E+02	 6.37300E+03
 4.27292E+02	 6.34100E+03
 4.29250E+02	 6.28600E+03
 4.31208E+02	 6.24100E+03
 4.33165E+02	 6.23100E+03
 4.35121E+02	 6.15300E+03
 4.37076E+02	 6.12800E+03
 4.39031E+02	 6.17900E+03
 4.40985E+02	 6.18600E+03
 4.42939E+02	 6.21200E+03
 4.44891E+02	 6.18000E+03
 4.46844E+02	 6.18100E+03
 4.48795E+02	 6.12700E+03
 4.50746E+02	 6.18900E+03
 4.52695E+02	 6.17200E+03
 4.54645E+02	 6.08000E+03
 4.56593E+02	 6.15200E+03
 4.58541E+02	 6.13900E+03
 4.60488E+02	 6.05800E+03
 4.62435E+02	 6.04700E+03
 4.64381E+02	 6.07200E+03
 4.66326E+02	 6.13900E+03
 4.68270E+02	 6.12100E+03
 4.70214E+02	 6.20700E+03
 4.72157E+02	 6.07500E+03
 4.74099E+02	 6.09300E+03
 4.76041E+02	 6.04200E+03
 4.77982E+02	 6.06300E+03
 4.79922E+02	 6.05700E+03
 4.81861E+02	 6.11000E+03
 4.83800E+02	 5.99600E+03
 4.85739E+02	 6.12700E+03
 4.87676E+02	 6.11000E+03
 4.89613E+02	 6.10000E+03
 4.91549E+02	 6.13400E+03
 4.93484E+02	 6.05800E+03
 4.95419E+02	 6.04400E+03
 4.97353E+02	 5.97900E+03
 4.99286E+02	 6.02800E+03
 5.01219E+02	 6.05300E+03
 5.03151E+02	 5.99400E+03
 5.05082E+02	 6.02500E+03
 5.07013E+02	 6.01600E+03
 5.08943E+02	 6.04300E+03
 5.10872E+02	 6.01200E+03
 5.12800E+02	 6.02500E+03
 5.14728E+02	 6.02000E+03
 5.16655E+02	 5.97900E+03
 5.18582E+02	 6.01900E+03
 5.20508E+02	 6.02500E+03
 5.22433E+02	 6.02000E+03
 5.24357E+02	 6.00600E+03
 5.26281E+02	 6.02000E+03
 5.28204E+02	 6.09100E+03
 5.30126E+02	 6.04200E+03
 5.32048E+02	 6.31000E+03
 5.33969E+02	 6.35800E+03
 5.35889E+02	 6.37300E+03
 5.37809E+02	 6.29600E+03
 5.39728E+02	 6.07400E+03
 5.41646E+02	 6.02800E+03
 5.43564E+02	 5.98700E+03
 5.45481E+02	 5.95900E+03
 5.47397E+02	 5.90400E+03
 5.49312E+02	 5.93100E+03
 5.51227E+02	 5.96600E+03
 5.53141E+02	 6.03200E+03
 5.55055E+02	 5.96200E+03
 5.56968E+02	 6.01600E+03
 5.58880E+02	 6.06400E+03
 5.60791E+02	 6.01300E+03
 5.62702E+02	 5.97200E+03
 5.64612E+02	 5.99200E+03
 5.66522E+02	 5.98300E+03
 5.68430E+02	 5.99900E+03
 5.70339E+02	 5.97800E+03
 5.72246E+02	 5.96600E+03
 5.74153E+02	 5.95900E+03
 5.76059E+02	 5.93100E+03
 5.77964E+02	 5.87700E+03
 5.79869E+02	 5.92400E+03
 5.81773E+02	 5.93800E+03
 5.83676E+02	 5.91200E+03
 5.85579E+02	 5.83400E+03
 5.87481E+02	 5.88000E+03
 5.89382E+02	 5.80500E+03
 5.91283E+02	 5.82900E+03
 5.93183E+02	 5.80700E+03
 5.95082E+02	 5.86200E+03
 5.96981E+02	 5.79400E+03
 5.98879E+02	 5.81200E+03
 6.00776E+02	 5.87100E+03
 6.02672E+02	 5.83700E+03
 6.04568E+02	 5.84800E+03
 6.06464E+02	 5.84400E+03
 6.08358E+02	 5.89100E+03
 6.10252E+02	 5.85600E+03
 6.12145E+02	 5.78400E+03
 6.14038E+02	 5.78300E+03
 6.15930E+02	 5.81100E+03
 6.17821E+02	 5.82400E+03
 6.19712E+02	 5.82000E+03
 6.21602E+02	 5.92400E+03
 6.23491E+02	 5.85000E+03
 6.25380E+02	 5.85100E+03
 6.27267E+02	 5.83600E+03
 6.29155E+02	 5.83100E+03
 6.31041E+02	 5.74800E+03
 6.32927E+02	 5.84400E+03
 6.34812E+02	 5.77500E+03
 6.36697E+02	 5.77900E+03
 6.38581E+02	 5.81200E+03
 6.40464E+02	 5.99200E+03
 6.42347E+02	 6.14200E+03
 6.44229E+02	 6.15000E+03
 6.46110E+02	 5.96000E+03
 6.47990E+02	 5.76100E+03
 6.49870E+02	 5.87500E+03
 6.51750E+02	 5.88300E+03
 6.53628E+02	 5.76700E+03
 6.55506E+02	 5.71700E+03
 6.57383E+02	 5.68800E+03
 6.59260E+02	 5.73000E+03
 6.61136E+02	 5.80000E+03
 6.63011E+02	 5.85700E+03
 6.64886E+02	 5.76200E+03
 6.66760E+02	 5.85200E+03
 6.68633E+02	 5.84500E+03
 6.70506E+02	 5.83000E+03
 6.72378E+02	 5.76800E+03
 6.74249E+02	 5.73600E+03
 6.76120E+02	 5.85300E+03
 6.77990E+02	 5.71700E+03
 6.79859E+02	 5.73300E+03
 6.81728E+02	 5.70400E+03
 6.83596E+02	 5.68100E+03
 6.85463E+02	 5.76300E+03
 6.87330E+02	 5.74200E+03
 6.89196E+02	 5.76600E+03
 6.91061E+02	 6.15300E+03
 6.92926E+02	 6.43500E+03
 6.94790E+02	 6.45600E+03
 6.96653E+02	 6.26200E+03
 6.98516E+02	 5.77300E+03
 7.00378E+02	 5.68600E+03
 7.02240E+02	 5.69300E+03
 7.04100E+02	 5.65300E+03
 7.05961E+02	 5.66700E+03
 7.07820E+02	 5.70400E+03
 7.09679E+02	 5.61800E+03
 7.11537E+02	 5.68900E+03
 7.13395E+02	 5.66900E+03
 7.15251E+02	 5.62100E+03
 7.17108E+02	 5.64600E+03
 7.18963E+02	 5.70600E+03
 7.20818E+02	 5.67600E+03
 7.22672E+02	 5.67700E+03
 7.24526E+02	 5.61900E+03
 7.26379E+02	 5.59600E+03
 7.28231E+02	 5.64000E+03
 7.30083E+02	 5.63600E+03
 7.31934E+02	 5.64100E+03
 7.33784E+02	 5.64500E+03
 7.35634E+02	 5.64500E+03
 7.37483E+02	 5.65700E+03
 7.39331E+02	 5.65700E+03
 7.41179E+02	 5.64100E+03
 7.43026E+02	 5.62100E+03
 7.44873E+02	 5.67000E+03
 7.46718E+02	 5.64900E+03
 7.48563E+02	 5.60800E+03
 7.50408E+02	 5.60900E+03
 7.52252E+02	 5.66800E+03
 7.54095E+02	 5.63400E+03
 7.55938E+02	 5.61100E+03
 7.57779E+02	 5.66100E+03
 7.59621E+02	 5.59800E+03
 7.61461E+02	 5.63000E+03
 7.63301E+02	 5.62000E+03
 7.65141E+02	 5.66800E+03
 7.66979E+02	 5.59200E+03
 7.68817E+02	 5.61600E+03
 7.70655E+02	 5.63700E+03
 7.72492E+02	 5.57400E+03
 7.74328E+02	 5.67700E+03
 7.76163E+02	 5.61100E+03
 7.77998E+02	 5.62900E+03
 7.79832E+02	 5.60900E+03
 7.81666E+02	 5.62400E+03
 7.83498E+02	 5.60500E+03
 7.85331E+02	 5.60600E+03
 7.87162E+02	 5.62000E+03
 7.88993E+02	 5.63800E+03
 7.90824E+02	 5.61500E+03
 7.92653E+02	 5.64300E+03
 7.94482E+02	 5.64500E+03
 7.96311E+02	 5.59400E+03
 7.98138E+02	 5.63400E+03
 7.99966E+02	 5.60700E+03
 8.01792E+02	 5.65400E+03
 8.03618E+02	 5.58800E+03
 8.05443E+02	 5.61300E+03
 8.07268E+02	 5.60400E+03
 8.09092E+02	 5.57500E+03
 8.10915E+02	 5.62600E+03
 8.12737E+02	 5.59200E+03
 8.14559E+02	 5.64000E+03
 8.16381E+02	 5.65100E+03
 8.18202E+02	 5.60100E+03
 8.20022E+02	 5.57600E+03
 8.21841E+02	 5.59400E+03
 8.23660E+02	 5.57000E+03
 8.25478E+02	 5.52300E+03
 8.27296E+02	 5.58000E+03
 8.29113E+02	 5.54300E+03
 8.30929E+02	 5.54700E+03
 8.32745E+02	 5.54700E+03
 8.34560E+02	 5.54500E+03
 8.36374E+02	 5.59600E+03
 8.38188E+02	 5.54700E+03
 8.40001E+02	 5.53200E+03
 8.41813E+02	 5.49900E+03
 8.43625E+02	 5.53500E+03
 8.45436E+02	 5.54300E+03
 8.47247E+02	 5.55100E+03
 8.49057E+02	 5.54700E+03
 8.50866E+02	 5.50600E+03
 8.52675E+02	 5.51300E+03
 8.54483E+02	 5.55500E+03
 8.56290E+02	 5.58800E+03
 8.58097E+02	 5.61600E+03
 8.59903E+02	 5.50300E+03
 8.61709E+02	 5.56600E+03
 8.63514E+02	 5.54400E+03
 8.65318E+02	 5.57700E+03
 8.67121E+02	 5.56300E+03
 8.68924E+02	 5.52400E+03
 8.70727E+02	 5.53100E+03
 8.72529E+02	 5.52300E+03
 8.74330E+02	 5.55000E+03
 8.76130E+02	 5.59700E+03
 8.77930E+02	 5.54800E+03
 8.79729E+02	 5.55400E+03
 8.81528E+02	 5.57400E+03
 8.83326E+02	 5.60800E+03
 8.85123E+02	 5.49100E+03
 8.86920E+02	 5.55800E+03
 8.88716E+02	 5.55500E+03
 8.90512E+02	 5.51800E+03
 8.92306E+02	 5.52900E+03
 8.94101E+02	 5.49200E+03
 8.95894E+02	 5.54500E+03
 8.97687E+02	 5.53000E+03
 8.99480E+02	 5.55700E+03
 9.01271E+02	 5.53400E+03
 9.03062E+02	 5.50600E+03
 9.04853E+02	 5.51500E+03
 9.06643E+02	 5.55300E+03
 9.08432E+02	 5.51100E+03
 9.10221E+02	 5.53900E+03
 9.12009E+02	 5.51200E+03
 9.13796E+02	 5.49700E+03
 9.15583E+02	 5.50200E+03
 9.17369E+02	 5.49200E+03
 9.19154E+02	 5.55000E+03
 9.20939E+02	 5.46900E+03
 9.22723E+02	 5.48400E+03
 9.24507E+02	 5.48400E+03
 9.26290E+02	 5.49800E+03
 9.28072E+02	 5.53200E+03
 9.29854E+02	 5.44500E+03
 9.31635E+02	 5.47200E+03
 9.33416E+02	 5.51200E+03
 9.35196E+02	 5.50500E+03
 9.36975E+02	 5.51700E+03
 9.38754E+02	 5.48100E+03
 9.40532E+02	 5.49200E+03
 9.42309E+02	 5.52500E+03
 9.44086E+02	 5.50000E+03
 9.45862E+02	 5.46500E+03
 9.47638E+02	 5.47000E+03
 9.49413E+02	 5.55000E+03
 9.51187E+02	 5.51500E+03
 9.52961E+02	 5.46400E+03
 9.54734E+02	 5.47700E+03
 9.56507E+02	 5.48800E+03
 9.58279E+02	 5.46200E+03
 9.60050E+02	 5.50400E+03
 9.61821E+02	 5.51300E+03
 9.63591E+02	 5.48400E+03
 9.65360E+02	 5.48900E+03
 9.67129E+02	 5.45300E+03
 9.68897E+02	 5.48800E+03
 9.70665E+02	 5.46900E+03
 9.72432E+02	 5.50800E+03
 9.74198E+02	 5.46000E+03
 9.75964E+02	 5.47600E+03
 9.77729E+02	 5.49200E+03
 9.79494E+02	 5.45000E+03
 9.81258E+02	 5.49500E+03
 9.83021E+02	 5.42500E+03
 9.84784E+02	 5.44600E+03
 9.86546E+02	 5.49900E+03
 9.88307E+02	 5.55600E+03
 9.90068E+02	 5.61200E+03
 9.91828E+02	 5.59400E+03
 9.93588E+02	 5.57800E+03
 9.95347E+02	 5.53600E+03
 9.97105E+02	 5.44900E+03
 9.98863E+02	 5.47400E+03
 1.00062E+03	 5.48900E+03
 1.00238E+03	 5.45900E+03
 1.00413E+03	 5.47200E+03
 1.00589E+03	 5.49200E+03
 1.00764E+03	 5.50100E+03
 1.00940E+03	 5.44000E+03
 1.01115E+03	 5.42300E+03
 1.01290E+03	 5.40800E+03
 1.01466E+03	 5.40400E+03
 1.01641E+03	 5.39600E+03
 1.01816E+03	 5.46700E+03
 1.01991E+03	 5.46900E+03
 1.02166E+03	 5.47900E+03
 1.02341E+03	 5.42400E+03
 1.02516E+03	 5.45700E+03
 1.02691E+03	 5.43000E+03
 1.02865E+03	 5.40700E+03
 1.03040E+03	 5.42300E+03
 1.03215E+03	 5.45100E+03
 1.03389E+03	 5.45800E+03
 1.03564E+03	 5.42400E+03
 1.03738E+03	 5.40300E+03
 1.03913E+03	 5.43200E+03
 1.04087E+03	 5.43700E+03
 1.04261E+03	 5.44500E+03
 1.04435E+03	 5.49700E+03
 1.04610E+03	 5.54800E+03
 1.04784E+03	 5.52100E+03
 1.04958E+03	 5.56600E+03
 1.05132E+03	 5.51500E+03
 1.05306E+03	 5.49900E+03
 1.05479E+03	 5.49400E+03
 1.05653E+03	 5.43300E+03
 1.05827E+03	 5.44100E+03
 1.06001E+03	 5.47200E+03
 1.06174E+03	 5.49500E+03
 1.06348E+03	 5.45100E+03
 1.06521E+03	 5.45700E+03
 1.06695E+03	 5.40000E+03
 1.06868E+03	 5.44100E+03
 1.07041E+03	 5.41500E+03
 1.07215E+03	 5.49400E+03
 1.07388E+03	 5.47600E+03
 1.07561E+03	 5.42100E+03
 1.07734E+03	 5.42600E+03
 1.07907E+03	 5.41900E+03
 1.08080E+03	 5.41500E+03
 1.08253E+03	 5.39400E+03
 1.08426E+03	 5.38800E+03
 1.08598E+03	 5.43700E+03
 1.08771E+03	 5.40100E+03
 1.08944E+03	 5.43700E+03
 1.09116E+03	 5.42000E+03
 1.09289E+03	 5.41700E+03
 1.09461E+03	 5.44100E+03
 1.09634E+03	 5.44600E+03
 1.09806E+03	 5.44000E+03
 1.09978E+03	 5.41700E+03
 1.10151E+03	 5.38600E+03
 1.10323E+03	 5.47300E+03
 1.10495E+03	 5.40500E+03
 1.10667E+03	 5.38500E+03
 1.10839E+03	 5.39400E+03
 1.11011E+03	 5.39200E+03
 1.11183E+03	 5.44600E+03
 1.11355E+03	 5.39600E+03
 1.11526E+03	 5.40600E+03
 1.11698E+03	 5.38100E+03
 1.11870E+03	 5.38300E+03
 1.12041E+03	 5.43100E+03
 1.12213E+03	 5.45100E+03
 1.12384E+03	 5.41400E+03
 1.12556E+03	 5.43000E+03
 1.12727E+03	 5.36000E+03
 1.12898E+03	 5.35300E+03
 1.13070E+03	 5.32600E+03
 1.13241E+03	 5.37400E+03
 1.13412E+03	 5.37000E+03
 1.13583E+03	 5.32300E+03
 1.13754E+03	 5.38700E+03
 1.13925E+03	 5.35100E+03
 1.14096E+03	 5.36000E+03
 1.14267E+03	 5.39100E+03
 1.14437E+03	 5.34700E+03
 1.14608E+03	 5.34100E+03
 1.14779E+03	 5.36500E+03
 1.14949E+03	 5.35900E+03
 1.15120E+03	 5.39900E+03
 1.15290E+03	 5.38200E+03
 1.15461E+03	 5.33700E+03
 1.15631E+03	 5.38200E+03
 1.15801E+03	 5.33000E+03
 1.15972E+03	 5.36800E+03
 1.16142E+03	 5.37300E+03
 1.16312E+03	 5.36300E+03
 1.16482E+03	 5.38300E+03
 1.16652E+03	 5.35900E+03
 1.16822E+03	 5.40800E+03
 1.16992E+03	 5.35000E+03
 1.17162E+03	 5.38700E+03
 1.17331E+03	 5.39900E+03
 1.17501E+03	 5.28300E+03
 1.17671E+03	 5.30300E+03
 1.17840E+03	 5.28500E+03
 1.18010E+03	 5.30700E+03
 1.18179E+03	 5.35800E+03
 1.18349E+03	 5.34100E+03
 1.18518E+03	 5.31700E+03
 1.18688E+03	 5.33000E+03
 1.18857E+03	 5.33300E+03
 1.19026E+03	 5.29600E+03
 1.19195E+03	 5.29100E+03
 1.19364E+03	 5.36500E+03
 1.19533E+03	 5.36000E+03
 1.19702E+03	 5.30700E+03
 1.19871E+03	 5.30700E+03
 1.20040E+03	 5.29600E+03
 1.20209E+03	 5.28200E+03
 1.20377E+03	 5.32100E+03
 1.20546E+03	 5.29600E+03
 1.20715E+03	 5.28400E+03
 1.20883E+03	 5.31300E+03
 1.21052E+03	 5.33100E+03
 1.21220E+03	 5.37000E+03
 1.21389E+03	 5.27400E+03
 1.21557E+03	 5.36600E+03
 1.21725E+03	 5.33300E+03
 1.21893E+03	 5.33700E+03
 1.22061E+03	 5.30700E+03
 1.22230E+03	 5.28300E+03
 1.22398E+03	 5.29200E+03
 1.22566E+03	 5.30000E+03
 1.22733E+03	 5.37400E+03
 1.22901E+03	 5.34100E+03
 1.23069E+03	 5.32500E+03
 1.23237E+03	 5.29400E+03
 1.23405E+03	 5.31700E+03
 1.23572E+03	 5.26400E+03
 1.23740E+03	 5.29700E+03
 1.23907E+03	 5.31900E+03
 1.24075E+03	 5.35000E+03
 1.24242E+03	 5.38400E+03
 1.24410E+03	 5.37400E+03
 1.24577E+03	 5.36200E+03
 1.24744E+03	 5.33300E+03
 1.24911E+03	 5.36300E+03
 1.25078E+03	 5.31200E+03
 1.25245E+03	 5.32400E+03
 1.25412E+03	 5.35700E+03
 1.25579E+03	 5.31400E+03
 1.25746E+03	 5.35400E+03
 1.25913E+03	 5.34000E+03
 1.26080E+03	 5.35200E+03
 1.26247E+03	 5.35000E+03
 1.26413E+03	 5.40100E+03
 1.26580E+03	 5.31200E+03
 1.26746E+03	 5.33600E+03
 1.26913E+03	 5.35500E+03
 1.27079E+03	 5.33100E+03
 1.27246E+03	 5.33200E+03
 1.27412E+03	 5.35800E+03
 1.27578E+03	 5.35200E+03
 1.27745E+03	 5.33500E+03
 1.27911E+03	 5.32300E+03
 1.28077E+03	 5.33400E+03
 1.28243E+03	 5.33300E+03
 1.28409E+03	 5.32200E+03
 1.28575E+03	 5.29100E+03
 1.28741E+03	 5.29200E+03
 1.28906E+03	 5.37900E+03
 1.29072E+03	 5.27900E+03
 1.29238E+03	 5.28800E+03
 1.29403E+03	 5.28800E+03
 1.29569E+03	 5.28800E+03
 1.29735E+03	 5.29900E+03
 1.29900E+03	 5.29600E+03
 1.30066E+03	 5.31500E+03
 1.30231E+03	 5.36000E+03
 1.30396E+03	 5.31800E+03
 1.30561E+03	 5.35500E+03
 1.30727E+03	 5.28600E+03
 1.30892E+03	 5.29400E+03
 1.31057E+03	 5.30900E+03
 1.31222E+03	 5.34000E+03
 1.31387E+03	 5.31000E+03
 1.31552E+03	 5.29100E+03
 1.31717E+03	 5.28700E+03
 1.31881E+03	 5.33900E+03
 1.32046E+03	 5.33500E+03
 1.32211E+03	 5.28300E+03
 1.32375E+03	 5.27500E+03
 1.32540E+03	 5.30700E+03
 1.32705E+03	 5.32500E+03
 1.32869E+03	 5.33000E+03
 1.33033E+03	 5.31000E+03
 1.33198E+03	 5.31700E+03
 1.33362E+03	 5.32400E+03
 1.33526E+03	 5.35900E+03
 1.33690E+03	 5.29900E+03
 1.33855E+03	 5.28500E+03
 1.34019E+03	 5.33400E+03
 1.34183E+03	 5.28000E+03
 1.34347E+03	 5.37400E+03
 1.34511E+03	 5.37600E+03
 1.34674E+03	 5.46500E+03
 1.34838E+03	 5.94100E+03
 1.35002E+03	 6.22900E+03
 1.35166E+03	 6.15700E+03
 1.35329E+03	 5.89700E+03
 1.35493E+03	 5.41600E+03
 1.35656E+03	 5.31900E+03
 1.35820E+03	 5.28500E+03
 1.35983E+03	 5.32700E+03
 1.36147E+03	 5.27700E+03
 1.36310E+03	 5.33900E+03
 1.36473E+03	 5.35100E+03
 1.36636E+03	 5.30400E+03
 1.36799E+03	 5.28800E+03
 1.36963E+03	 5.30900E+03
 1.37126E+03	 5.29200E+03
 1.37289E+03	 5.28800E+03
 1.37451E+03	 5.31500E+03
 1.37614E+03	 5.27100E+03
 1.37777E+03	 5.27200E+03
 1.37940E+03	 5.29600E+03
 1.38102E+03	 5.33100E+03
 1.38265E+03	 5.26700E+03
 1.38428E+03	 5.32200E+03
 1.38590E+03	 5.32600E+03
 1.38753E+03	 5.28300E+03
 1.38915E+03	 5.24200E+03
 1.39077E+03	 5.23100E+03
 1.39240E+03	 5.26800E+03
 1.39402E+03	 5.27800E+03
 1.39564E+03	 5.29000E+03
 1.39726E+03	 5.27400E+03
 1.39888E+03	 5.31700E+03
 1.40050E+03	 5.22300E+03
 1.40212E+03	 5.25400E+03
 1.40374E+03	 5.25200E+03
 1.40536E+03	 5.27000E+03
 1.40698E+03	 5.24800E+03
 1.40860E+03	 5.26000E+03
 1.41021E+03	 5.26100E+03
 1.41183E+03	 5.28500E+03
 1.41345E+03	 5.25300E+03
 1.41506E+03	 5.26600E+03
 1.41668E+03	 5.28300E+03
 1.41829E+03	 5.27100E+03
 1.41991E+03	 5.28100E+03
 1.42152E+03	 5.29500E+03
 1.42313E+03	 5.26300E+03
 1.42474E+03	 5.24600E+03
 1.42635E+03	 5.27200E+03
 1.42797E+03	 5.20800E+03
 1.42958E+03	 5.24900E+03
 1.43119E+03	 5.26100E+03
 1.43280E+03	 5.24000E+03
 1.43440E+03	 5.23100E+03
 1.43601E+03	 5.24800E+03
 1.43762E+03	 5.21300E+03
 1.43923E+03	 5.27800E+03
 1.44083E+03	 5.27000E+03
 1.44244E+03	 5.27900E+03
 1.44405E+03	 5.23200E+03
 1.44565E+03	 5.25700E+03
 1.44726E+03	 5.19300E+03
 1.44886E+03	 5.27100E+03
 1.45046E+03	 5.20900E+03
 1.45207E+03	 5.20400E+03
 1.45367E+03	 5.27400E+03
 1.45527E+03	 5.25600E+03
 1.45687E+03	 5.21500E+03
 1.45847E+03	 5.19100E+03
 1.46007E+03	 5.25800E+03
 1.46167E+03	 5.23500E+03
 1.46327E+03	 5.20500E+03
 1.46487E+03	 5.25400E+03
 1.46647E+03	 5.24600E+03
 1.46806E+03	 5.22700E+03
 1.46966E+03	 5.26200E+03
 1.47126E+03	 5.22600E+03
 1.47285E+03	 5.23900E+03
 1.47445E+03	 5.21400E+03
 1.47604E+03	 5.22800E+03
 1.47764E+03	 5.24600E+03
 1.47923E+03	 5.24400E+03
 1.48082E+03	 5.19700E+03
 1.48242E+03	 5.20600E+03
 1.48401E+03	 5.21000E+03
 1.48560E+03	 5.23500E+03
 1.48719E+03	 5.18400E+03
 1.48878E+03	 5.19900E+03
 1.49037E+03	 5.21100E+03
 1.49196E+03	 5.21000E+03
 1.49355E+03	 5.18100E+03
 1.49514E+03	 5.17000E+03
 1.49673E+03	 5.17800E+03
 1.49831E+03	 5.16400E+03
 1.49990E+03	 5.17100E+03
 1.50149E+03	 5.19300E+03
 1.50307E+03	 5.23400E+03
 1.50466E+03	 5.17000E+03
 1.50624E+03	 5.16800E+03
 1.50783E+03	 5.22100E+03
 1.50941E+03	 5.16700E+03
 1.51099E+03	 5.24600E+03
 1.51257E+03	 5.18700E+03
 1.51416E+03	 5.19600E+03
 1.51574E+03	 5.18500E+03
 1.51732E+03	 5.15200E+03
 1.51890E+03	 5.17200E+03
 1.52048E+03	 5.20300E+03
 1.52206E+03	 5.20300E+03
 1.52364E+03	 5.16700E+03
 1.52522E+03	 5.15100E+03
 1.52679E+03	 5.21200E+03
 1.52837E+03	 5.16700E+03
 1.52995E+03	 5.17500E+03
 1.53152E+03	 5.20300E+03
 1.53310E+03	 5.16100E+03
 1.53467E+03	 5.18300E+03
 1.53625E+03	 5.17400E+03
 1.53782E+03	 5.18500E+03
 1.53940E+03	 5.15800E+03
 1.54097E+03	 5.36200E+03
 1.54254E+03	 5.77700E+03
 1.54411E+03	 5.80000E+03
 1.54568E+03	 5.76400E+03
 1.54725E+03	 5.35200E+03
 1.54882E+03	 5.15900E+03
 1.55039E+03	 5.20100E+03
 1.55196E+03	 5.20500E+03
 1.55353E+03	 5.14700E+03
 1.55510E+03	 5.19000E+03
 1.55667E+03	 5.14900E+03
 1.55824E+03	 5.13100E+03
 1.55980E+03	 5.12000E+03
 1.56137E+03	 5.16100E+03
 1.56293E+03	 5.17200E+03
 1.56450E+03	 5.16200E+03
 1.56606E+03	 5.17800E+03
 1.56763E+03	 5.12400E+03
 1.56919E+03	 5.14400E+03
 1.57075E+03	 5.12200E+03
 1.57232E+03	 5.15100E+03
 1.57388E+03	 5.14500E+03
 1.57544E+03	 5.17700E+03
 1.57700E+03	 5.14200E+03
 1.57856E+03	 5.16000E+03
 1.58012E+03	 5.12800E+03
 1.58168E+03	 5.15000E+03
 1.58324E+03	 5.13100E+03
 1.58480E+03	 5.14800E+03
 1.58635E+03	 5.15200E+03
 1.58791E+03	 5.13000E+03
 1.58947E+03	 5.05900E+03
 1.59102E+03	 5.11400E+03
 1.59258E+03	 5.14000E+03
 1.59413E+03	 5.13700E+03
 1.59569E+03	 5.12200E+03
 1.59724E+03	 5.17600E+03
 1.59880E+03	 5.14800E+03
 1.60035E+03	 5.17600E+03
 1.60190E+03	 5.13000E+03
 1.60345E+03	 5.11600E+03
 1.60501E+03	 5.13900E+03
 1.60656E+03	 5.11900E+03
 1.60811E+03	 5.11200E+03
 1.60966E+03	 5.07600E+03
 1.61121E+03	 5.14800E+03
 1.61276E+03	 5.11700E+03
 1.61430E+03	 5.10700E+03
 1.61585E+03	 5.14900E+03
 1.61740E+03	 5.11900E+03
 1.61895E+03	 5.10000E+03
 1.62049E+03	 5.13900E+03
 1.62204E+03	 5.07100E+03
 1.62358E+03	 5.09600E+03
 1.62513E+03	 5.14900E+03
 1.62667E+03	 5.14000E+03
 1.62822E+03	 5.15000E+03
 1.62976E+03	 5.16800E+03
 1.63130E+03	 5.11000E+03
 1.63284E+03	 5.12800E+03
 1.63439E+03	 5.08500E+03
 1.63593E+03	 5.07400E+03
 1.63747E+03	 5.13000E+03
 1.63901E+03	 5.16700E+03
 1.64055E+03	 5.07900E+03
 1.64209E+03	 5.14900E+03
 1.64362E+03	 5.14800E+03
 1.64516E+03	 5.12800E+03
 1.64670E+03	 5.09500E+03
 1.64824E+03	 5.14400E+03
 1.64977E+03	 5.13400E+03
 1.65131E+03	 5.12400E+03
 1.65284E+03	 5.09400E+03
 1.65438E+03	 5.08300E+03
 1.65591E+03	 5.08300E+03
 1.65745E+03	 5.13200E+03
 1.65898E+03	 5.15000E+03
 1.66051E+03	 5.09600E+03
 1.66205E+03	 5.13300E+03
 1.66358E+03	 5.14500E+03
 1.66511E+03	 5.13500E+03
 1.66664E+03	 5.08500E+03
 1.66817E+03	 5.16200E+03
 1.66970E+03	 5.10900E+03
 1.67123E+03	 5.07800E+03
 1.67276E+03	 5.08600E+03
 1.67429E+03	 5.08800E+03
 1.67582E+03	 5.15200E+03
 1.67734E+03	 5.07700E+03
 1.67887E+03	 5.12900E+03
 1.68040E+03	 5.14200E+03
 1.68192E+03	 5.13800E+03
 1.68345E+03	 5.11200E+03
 1.68497E+03	 5.12200E+03
 1.68650E+03	 5.13200E+03
 1.68802E+03	 5.12900E+03
 1.68954E+03	 5.13000E+03
 1.69107E+03	 5.18500E+03
 1.69259E+03	 5.05600E+03
 1.69411E+03	 5.14800E+03
 1.69563E+03	 5.13300E+03
 1.69715E+03	 5.13700E+03
 1.69867E+03	 5.14300E+03
 1.70019E+03	 5.11200E+03
 1.70171E+03	 5.13500E+03
 1.70323E+03	 5.12100E+03
 1.70475E+03	 5.10300E+03
 1.70626E+03	 5.10400E+03
 1.70778E+03	 5.09100E+03
 1.70930E+03	 5.05200E+03
 1.71081E+03	 5.08700E+03
 1.71233E+03	 5.12800E+03
 1.71385E+03	 5.13400E+03
 1.71536E+03	 5.13300E+03
 1.71687E+03	 5.08200E+03
 1.71839E+03	 5.04600E+03
 1.71990E+03	 5.11700E+03
 1.72141E+03	 5.10200E+03
 1.72293E+03	 5.08700E+03
 1.72444E+03	 5.13100E+03
 1.72595E+03	 5.13100E+03
 1.72746E+03	 5.12000E+03
 1.72897E+03	 5.11000E+03
 1.73048E+03	 5.08100E+03
 1.73199E+03	 5.08700E+03
 1.73350E+03	 5.09900E+03
 1.73500E+03	 5.13600E+03
 1.73651E+03	 5.14500E+03
 1.73802E+03	 5.12000E+03
 1.73953E+03	 5.10600E+03
 1.74103E+03	 5.08700E+03
 1.74254E+03	 5.09700E+03
 1.74404E+03	 5.09800E+03
 1.74555E+03	 5.07900E+03
 1.74705E+03	 5.08000E+03
 1.74856E+03	 5.11900E+03
 1.75006E+03	 5.08500E+03
 1.75156E+03	 5.10300E+03
 1.75306E+03	 5.11100E+03
 1.75457E+03	 5.08800E+03
 1.75607E+03	 5.09900E+03
 1.75757E+03	 5.12800E+03
 1.75907E+03	 5.16400E+03
 1.76057E+03	 5.12200E+03
 1.76207E+03	 5.13800E+03
 1.76356E+03	 5.12800E+03
 1.76506E+03	 5.12300E+03
 1.76656E+03	 5.06100E+03
 1.76806E+03	 5.09300E+03
 1.76955E+03	 5.12900E+03
 1.77105E+03	 5.09500E+03
 1.77255E+03	 5.11300E+03
 1.77404E+03	 5.10600E+03
 1.77554E+03	 5.04700E+03
 1.77703E+03	 5.13500E+03
 1.77852E+03	 5.07500E+03
