-5.09402E+01	 4.74500E+03
-4.88086E+01	 4.76900E+03
-4.66778E+01	 4.74100E+03
-4.45478E+01	 4.77600E+03
-4.24186E+01	 4.82600E+03
-4.02901E+01	 4.81500E+03
-3.81624E+01	 4.85400E+03
-3.60355E+01	 4.90900E+03
-3.39094E+01	 4.96900E+03
-3.17841E+01	 5.05000E+03
-2.96595E+01	 5.14600E+03
-2.75358E+01	 5.28100E+03
-2.54128E+01	 5.42000E+03
-2.32906E+01	 5.73500E+03
-2.11691E+01	 6.13200E+03
-1.90485E+01	 6.70200E+03
-1.69286E+01	 7.83000E+03
-1.48095E+01	 9.41200E+03
-1.26911E+01	 1.28520E+04
-1.05736E+01	 2.15480E+04
-8.45679E+00	 5.01930E+04
-6.34078E+00	 6.55350E+04
-4.22555E+00	 6.55350E+04
-2.11109E+00	 6.55350E+04
 2.59050E-03	 6.55350E+04
 2.11550E+00	 6.55350E+04
 4.22764E+00	 6.55350E+04
 6.33900E+00	 6.55350E+04
 8.44959E+00	 6.55350E+04
 1.05594E+01	 6.55350E+04
 1.26685E+01	 6.55350E+04
 1.47767E+01	 6.55350E+04
 1.68842E+01	 6.55350E+04
 1.89910E+01	 6.55350E+04
 2.10969E+01	 6.55350E+04
 2.32021E+01	 6.55350E+04
 2.53065E+01	 6.55350E+04
 2.74102E+01	 4.24860E+04
 2.95131E+01	 2.14250E+04
 3.16152E+01	 1.72940E+04
 3.37165E+01	 1.47650E+04
 3.58171E+01	 1.29220E+04
 3.79169E+01	 1.20370E+04
 4.00160E+01	 1.14840E+04
 4.21143E+01	 1.13370E+04
 4.42118E+01	 1.11970E+04
 4.63085E+01	 1.11430E+04
 4.84045E+01	 1.17070E+04
 5.04997E+01	 1.26690E+04
 5.25942E+01	 1.39580E+04
 5.46879E+01	 1.60170E+04
 5.67808E+01	 1.90510E+04
 5.88730E+01	 2.39140E+04
 6.09644E+01	 2.83050E+04
 6.30550E+01	 3.24440E+04
 6.51449E+01	 3.38600E+04
 6.72340E+01	 3.58990E+04
 6.93223E+01	 3.85640E+04
 7.14099E+01	 3.72270E+04
 7.34967E+01	 3.45160E+04
 7.55828E+01	 3.18910E+04
 7.76681E+01	 2.90770E+04
 7.97526E+01	 2.66810E+04
 8.18364E+01	 2.50210E+04
 8.39194E+01	 2.36190E+04
 8.60017E+01	 2.28030E+04
 8.80832E+01	 2.19040E+04
 9.01640E+01	 2.15610E+04
 9.22440E+01	 2.12910E+04
 9.43232E+01	 2.13570E+04
 9.64017E+01	 2.12220E+04
 9.84794E+01	 2.17890E+04
 1.00556E+02	 2.16880E+04
 1.02633E+02	 2.13630E+04
 1.04708E+02	 2.09160E+04
 1.06783E+02	 2.08690E+04
 1.08857E+02	 2.10890E+04
 1.10930E+02	 2.10520E+04
 1.13002E+02	 2.06020E+04
 1.15074E+02	 2.03520E+04
 1.17145E+02	 2.04700E+04
 1.19215E+02	 2.02470E+04
 1.21284E+02	 1.99060E+04
 1.23353E+02	 1.95040E+04
 1.25421E+02	 1.89260E+04
 1.27488E+02	 1.91220E+04
 1.29555E+02	 1.91240E+04
 1.31620E+02	 1.91620E+04
 1.33685E+02	 1.89320E+04
 1.35749E+02	 1.89390E+04
 1.37813E+02	 1.85850E+04
 1.39875E+02	 1.84940E+04
 1.41937E+02	 1.85780E+04
 1.43998E+02	 1.88600E+04
 1.46059E+02	 1.88290E+04
 1.48119E+02	 1.85520E+04
 1.50177E+02	 1.84880E+04
 1.52236E+02	 1.80960E+04
 1.54293E+02	 1.81270E+04
 1.56350E+02	 1.76700E+04
 1.58406E+02	 1.72390E+04
 1.60461E+02	 1.76680E+04
 1.62515E+02	 1.77860E+04
 1.64569E+02	 1.74380E+04
 1.66622E+02	 1.73290E+04
 1.68674E+02	 1.69960E+04
 1.70726E+02	 1.73080E+04
 1.72776E+02	 1.74460E+04
 1.74826E+02	 1.73720E+04
 1.76875E+02	 1.71690E+04
 1.78924E+02	 1.73260E+04
 1.80972E+02	 1.69860E+04
 1.83019E+02	 1.67810E+04
 1.85065E+02	 1.67620E+04
 1.87110E+02	 1.65760E+04
 1.89155E+02	 1.66700E+04
 1.91199E+02	 1.70270E+04
 1.93243E+02	 1.65630E+04
 1.95285E+02	 1.64340E+04
 1.97327E+02	 1.62770E+04
 1.99368E+02	 1.60500E+04
 2.01408E+02	 1.60790E+04
 2.03448E+02	 1.60290E+04
 2.05487E+02	 1.61460E+04
 2.07525E+02	 1.65080E+04
 2.09562E+02	 1.64130E+04
 2.11599E+02	 1.64110E+04
 2.13635E+02	 1.59890E+04
 2.15670E+02	 1.59690E+04
 2.17705E+02	 1.59240E+04
 2.19738E+02	 1.58570E+04
 2.21771E+02	 1.58490E+04
 2.23803E+02	 1.58900E+04
 2.25835E+02	 1.57130E+04
 2.27866E+02	 1.58140E+04
 2.29896E+02	 1.58380E+04
 2.31925E+02	 1.56550E+04
 2.33954E+02	 1.56860E+04
 2.35981E+02	 1.58670E+04
 2.38008E+02	 1.60110E+04
 2.40035E+02	 1.61460E+04
 2.42060E+02	 1.59660E+04
 2.44085E+02	 1.54410E+04
 2.46110E+02	 1.54260E+04
 2.48133E+02	 1.55050E+04
 2.50156E+02	 1.51270E+04
 2.52178E+02	 1.53710E+04
 2.54199E+02	 1.54030E+04
 2.56219E+02	 1.52800E+04
 2.58239E+02	 1.51020E+04
 2.60258E+02	 1.51630E+04
 2.62277E+02	 1.54870E+04
 2.64294E+02	 1.52650E+04
 2.66311E+02	 1.50220E+04
 2.68327E+02	 1.49410E+04
 2.70343E+02	 1.49860E+04
 2.72357E+02	 1.49040E+04
 2.74371E+02	 1.47660E+04
 2.76385E+02	 1.46800E+04
 2.78397E+02	 1.45620E+04
 2.80409E+02	 1.47620E+04
 2.82420E+02	 1.49220E+04
 2.84430E+02	 1.47600E+04
 2.86440E+02	 1.45920E+04
 2.88449E+02	 1.46460E+04
 2.90457E+02	 1.46100E+04
 2.92464E+02	 1.47190E+04
 2.94471E+02	 1.49900E+04
 2.96477E+02	 1.48990E+04
 2.98482E+02	 1.46250E+04
 3.00487E+02	 1.45480E+04
 3.02491E+02	 1.43230E+04
 3.04494E+02	 1.44820E+04
 3.06496E+02	 1.43080E+04
 3.08498E+02	 1.42240E+04
 3.10499E+02	 1.42540E+04
 3.12499E+02	 1.43020E+04
 3.14499E+02	 1.44650E+04
 3.16497E+02	 1.43450E+04
 3.18495E+02	 1.43550E+04
 3.20493E+02	 1.42920E+04
 3.22489E+02	 1.42990E+04
 3.24485E+02	 1.42100E+04
 3.26480E+02	 1.42220E+04
 3.28475E+02	 1.43130E+04
 3.30469E+02	 1.45330E+04
 3.32462E+02	 1.43700E+04
 3.34454E+02	 1.42740E+04
 3.36446E+02	 1.40730E+04
 3.38437E+02	 1.39250E+04
 3.40427E+02	 1.35520E+04
 3.42416E+02	 1.38280E+04
 3.44405E+02	 1.40350E+04
 3.46393E+02	 1.42330E+04
 3.48380E+02	 1.42310E+04
 3.50367E+02	 1.40500E+04
 3.52353E+02	 1.41070E+04
 3.54338E+02	 1.40530E+04
 3.56323E+02	 1.40890E+04
 3.58306E+02	 1.39270E+04
 3.60289E+02	 1.37810E+04
 3.62272E+02	 1.42050E+04
 3.64253E+02	 1.43440E+04
 3.66234E+02	 1.40640E+04
 3.68214E+02	 1.36090E+04
 3.70194E+02	 1.37580E+04
 3.72173E+02	 1.39860E+04
 3.74151E+02	 1.39450E+04
 3.76128E+02	 1.38790E+04
 3.78105E+02	 1.40260E+04
 3.80081E+02	 1.40350E+04
 3.82056E+02	 1.40760E+04
 3.84030E+02	 1.37960E+04
 3.86004E+02	 1.38090E+04
 3.87977E+02	 1.37400E+04
 3.89950E+02	 1.37910E+04
 3.91921E+02	 1.35930E+04
 3.93892E+02	 1.37720E+04
 3.95863E+02	 1.38120E+04
 3.97832E+02	 1.39100E+04
 3.99801E+02	 1.38080E+04
 4.01769E+02	 1.36940E+04
 4.03737E+02	 1.37270E+04
 4.05704E+02	 1.38830E+04
 4.07670E+02	 1.40640E+04
 4.09635E+02	 1.38200E+04
 4.11600E+02	 1.37640E+04
 4.13564E+02	 1.37810E+04
 4.15527E+02	 1.38830E+04
 4.17489E+02	 1.40550E+04
 4.19451E+02	 1.43430E+04
 4.21412E+02	 1.42610E+04
 4.23373E+02	 1.40530E+04
 4.25333E+02	 1.41270E+04
 4.27292E+02	 1.41490E+04
 4.29250E+02	 1.40000E+04
 4.31208E+02	 1.38720E+04
 4.33165E+02	 1.37060E+04
 4.35121E+02	 1.35820E+04
 4.37076E+02	 1.33840E+04
 4.39031E+02	 1.34830E+04
 4.40985E+02	 1.35240E+04
 4.42939E+02	 1.34220E+04
 4.44891E+02	 1.33560E+04
 4.46844E+02	 1.34590E+04
 4.48795E+02	 1.33650E+04
 4.50746E+02	 1.33340E+04
 4.52695E+02	 1.34140E+04
 4.54645E+02	 1.31860E+04
 4.56593E+02	 1.29780E+04
 4.58541E+02	 1.30210E+04
 4.60488E+02	 1.31610E+04
 4.62435E+02	 1.30340E+04
 4.64381E+02	 1.29840E+04
 4.66326E+02	 1.29390E+04
 4.68270E+02	 1.29310E+04
 4.70214E+02	 1.29500E+04
 4.72157E+02	 1.28850E+04
 4.74099E+02	 1.28640E+04
 4.76041E+02	 1.27700E+04
 4.77982E+02	 1.28020E+04
 4.79922E+02	 1.27190E+04
 4.81861E+02	 1.26920E+04
 4.83800E+02	 1.25450E+04
 4.85739E+02	 1.27530E+04
 4.87676E+02	 1.28520E+04
 4.89613E+02	 1.27380E+04
 4.91549E+02	 1.24980E+04
 4.93484E+02	 1.24470E+04
 4.95419E+02	 1.24330E+04
 4.97353E+02	 1.26890E+04
 4.99286E+02	 1.25010E+04
 5.01219E+02	 1.24960E+04
 5.03151E+02	 1.26830E+04
 5.05082E+02	 1.26520E+04
 5.07013E+02	 1.24360E+04
 5.08943E+02	 1.25070E+04
 5.10872E+02	 1.25800E+04
 5.12800E+02	 1.25820E+04
 5.14728E+02	 1.23500E+04
 5.16655E+02	 1.23010E+04
 5.18582E+02	 1.25570E+04
 5.20508E+02	 1.26890E+04
 5.22433E+02	 1.28340E+04
 5.24357E+02	 1.28380E+04
 5.26281E+02	 1.27310E+04
 5.28204E+02	 1.26250E+04
 5.30126E+02	 1.26030E+04
 5.32048E+02	 1.28950E+04
 5.33969E+02	 1.29320E+04
 5.35889E+02	 1.27870E+04
 5.37809E+02	 1.27500E+04
 5.39728E+02	 1.24440E+04
 5.41646E+02	 1.24180E+04
 5.43564E+02	 1.26170E+04
 5.45481E+02	 1.27060E+04
 5.47397E+02	 1.26720E+04
 5.49312E+02	 1.26590E+04
 5.51227E+02	 1.27690E+04
 5.53141E+02	 1.25130E+04
 5.55055E+02	 1.23270E+04
 5.56968E+02	 1.24000E+04
 5.58880E+02	 1.22330E+04
 5.60791E+02	 1.23370E+04
 5.62702E+02	 1.21570E+04
 5.64612E+02	 1.20160E+04
 5.66522E+02	 1.18710E+04
 5.68430E+02	 1.19390E+04
 5.70339E+02	 1.21760E+04
 5.72246E+02	 1.22470E+04
 5.74153E+02	 1.21770E+04
 5.76059E+02	 1.17920E+04
 5.77964E+02	 1.20100E+04
 5.79869E+02	 1.19280E+04
 5.81773E+02	 1.17420E+04
 5.83676E+02	 1.17350E+04
 5.85579E+02	 1.20580E+04
 5.87481E+02	 1.18690E+04
 5.89382E+02	 1.15500E+04
 5.91283E+02	 1.16860E+04
 5.93183E+02	 1.17690E+04
 5.95082E+02	 1.20150E+04
 5.96981E+02	 1.19490E+04
 5.98879E+02	 1.17700E+04
 6.00776E+02	 1.18240E+04
 6.02672E+02	 1.16800E+04
 6.04568E+02	 1.17990E+04
 6.06464E+02	 1.19190E+04
 6.08358E+02	 1.19480E+04
 6.10252E+02	 1.19260E+04
 6.12145E+02	 1.19940E+04
 6.14038E+02	 1.20280E+04
 6.15930E+02	 1.18740E+04
 6.17821E+02	 1.17480E+04
 6.19712E+02	 1.16740E+04
 6.21602E+02	 1.16780E+04
 6.23491E+02	 1.16100E+04
 6.25380E+02	 1.15900E+04
 6.27267E+02	 1.16000E+04
 6.29155E+02	 1.15910E+04
 6.31041E+02	 1.18040E+04
 6.32927E+02	 1.19700E+04
 6.34812E+02	 1.19060E+04
 6.36697E+02	 1.18670E+04
 6.38581E+02	 1.18190E+04
 6.40464E+02	 1.16670E+04
 6.42347E+02	 1.13740E+04
 6.44229E+02	 1.15630E+04
 6.46110E+02	 1.17030E+04
 6.47990E+02	 1.14780E+04
 6.49870E+02	 1.13580E+04
 6.51750E+02	 1.17210E+04
 6.53628E+02	 1.16590E+04
 6.55506E+02	 1.16370E+04
 6.57383E+02	 1.13970E+04
 6.59260E+02	 1.15840E+04
 6.61136E+02	 1.13100E+04
 6.63011E+02	 1.12750E+04
 6.64886E+02	 1.12740E+04
 6.66760E+02	 1.11880E+04
 6.68633E+02	 1.11090E+04
 6.70506E+02	 1.12060E+04
 6.72378E+02	 1.13620E+04
 6.74249E+02	 1.12620E+04
 6.76120E+02	 1.13890E+04
 6.77990E+02	 1.13230E+04
 6.79859E+02	 1.12000E+04
 6.81728E+02	 1.11790E+04
 6.83596E+02	 1.12220E+04
 6.85463E+02	 1.10950E+04
 6.87330E+02	 1.11140E+04
 6.89196E+02	 1.10130E+04
 6.91061E+02	 1.11790E+04
 6.92926E+02	 1.11590E+04
 6.94790E+02	 1.11420E+04
 6.96653E+02	 1.10680E+04
 6.98516E+02	 1.10700E+04
 7.00378E+02	 1.09990E+04
 7.02240E+02	 1.10850E+04
 7.04100E+02	 1.11580E+04
 7.05961E+02	 1.09930E+04
 7.07820E+02	 1.08120E+04
 7.09679E+02	 1.09250E+04
 7.11537E+02	 1.10600E+04
 7.13395E+02	 1.08500E+04
 7.15251E+02	 1.09000E+04
 7.17108E+02	 1.09720E+04
 7.18963E+02	 1.10070E+04
 7.20818E+02	 1.08610E+04
 7.22672E+02	 1.07230E+04
 7.24526E+02	 1.07670E+04
 7.26379E+02	 1.07950E+04
 7.28231E+02	 1.09720E+04
 7.30083E+02	 1.09310E+04
 7.31934E+02	 1.09520E+04
 7.33784E+02	 1.10220E+04
 7.35634E+02	 1.09590E+04
 7.37483E+02	 1.09540E+04
 7.39331E+02	 1.10060E+04
 7.41179E+02	 1.08410E+04
 7.43026E+02	 1.07110E+04
 7.44873E+02	 1.08000E+04
 7.46718E+02	 1.09110E+04
 7.48563E+02	 1.09840E+04
 7.50408E+02	 1.09780E+04
 7.52252E+02	 1.09640E+04
 7.54095E+02	 1.11870E+04
 7.55938E+02	 1.09400E+04
 7.57779E+02	 1.10940E+04
 7.59621E+02	 1.13520E+04
 7.61461E+02	 1.16280E+04
 7.63301E+02	 1.17090E+04
 7.65141E+02	 1.16410E+04
 7.66979E+02	 1.17100E+04
 7.68817E+02	 1.19700E+04
 7.70655E+02	 1.20710E+04
 7.72492E+02	 1.22310E+04
 7.74328E+02	 1.20930E+04
 7.76163E+02	 1.20230E+04
 7.77998E+02	 1.20430E+04
 7.79832E+02	 1.19660E+04
 7.81666E+02	 1.18120E+04
 7.83498E+02	 1.15880E+04
 7.85331E+02	 1.17190E+04
 7.87162E+02	 1.18100E+04
 7.88993E+02	 1.17170E+04
 7.90824E+02	 1.16750E+04
 7.92653E+02	 1.16380E+04
 7.94482E+02	 1.15700E+04
 7.96311E+02	 1.13920E+04
 7.98138E+02	 1.12450E+04
 7.99966E+02	 1.12760E+04
 8.01792E+02	 1.13870E+04
 8.03618E+02	 1.12580E+04
 8.05443E+02	 1.09570E+04
 8.07268E+02	 1.08090E+04
 8.09092E+02	 1.07910E+04
 8.10915E+02	 1.06910E+04
 8.12737E+02	 1.04400E+04
 8.14559E+02	 1.05050E+04
 8.16381E+02	 1.06990E+04
 8.18202E+02	 1.05320E+04
 8.20022E+02	 1.04070E+04
 8.21841E+02	 1.04260E+04
 8.23660E+02	 1.03980E+04
 8.25478E+02	 1.03880E+04
 8.27296E+02	 1.03470E+04
 8.29113E+02	 1.02250E+04
 8.30929E+02	 1.01380E+04
 8.32745E+02	 1.02220E+04
 8.34560E+02	 1.03830E+04
 8.36374E+02	 1.03140E+04
 8.38188E+02	 1.01320E+04
 8.40001E+02	 1.00440E+04
 8.41813E+02	 1.02590E+04
 8.43625E+02	 1.03340E+04
 8.45436E+02	 1.03690E+04
 8.47247E+02	 1.01660E+04
 8.49057E+02	 1.02190E+04
 8.50866E+02	 1.01950E+04
 8.52675E+02	 1.04430E+04
 8.54483E+02	 1.04750E+04
 8.56290E+02	 1.02270E+04
 8.58097E+02	 1.03160E+04
 8.59903E+02	 1.02910E+04
 8.61709E+02	 1.02500E+04
 8.63514E+02	 1.00380E+04
 8.65318E+02	 1.00900E+04
 8.67121E+02	 1.02490E+04
 8.68924E+02	 1.04430E+04
 8.70727E+02	 1.03300E+04
 8.72529E+02	 1.02590E+04
 8.74330E+02	 1.03610E+04
 8.76130E+02	 1.02260E+04
 8.77930E+02	 1.04190E+04
 8.79729E+02	 1.04980E+04
 8.81528E+02	 1.03190E+04
 8.83326E+02	 1.03840E+04
 8.85123E+02	 1.04470E+04
 8.86920E+02	 1.06480E+04
 8.88716E+02	 1.06230E+04
 8.90512E+02	 1.04820E+04
 8.92306E+02	 1.03420E+04
 8.94101E+02	 1.04790E+04
 8.95894E+02	 1.06680E+04
 8.97687E+02	 1.05470E+04
 8.99480E+02	 1.04880E+04
 9.01271E+02	 1.05250E+04
 9.03062E+02	 1.05480E+04
 9.04853E+02	 1.06680E+04
 9.06643E+02	 1.06110E+04
 9.08432E+02	 1.04910E+04
 9.10221E+02	 1.03040E+04
 9.12009E+02	 1.02920E+04
 9.13796E+02	 1.01660E+04
 9.15583E+02	 1.02890E+04
 9.17369E+02	 1.02940E+04
 9.19154E+02	 1.01420E+04
 9.20939E+02	 1.01760E+04
 9.22723E+02	 1.02550E+04
 9.24507E+02	 1.01860E+04
 9.26290E+02	 1.03520E+04
 9.28072E+02	 1.03840E+04
 9.29854E+02	 1.02950E+04
 9.31635E+02	 1.02770E+04
 9.33416E+02	 1.02320E+04
 9.35196E+02	 1.02200E+04
 9.36975E+02	 1.01180E+04
 9.38754E+02	 1.02020E+04
 9.40532E+02	 1.00670E+04
 9.42309E+02	 1.00430E+04
 9.44086E+02	 1.01330E+04
 9.45862E+02	 1.01750E+04
 9.47638E+02	 1.01240E+04
 9.49413E+02	 1.00580E+04
 9.51187E+02	 9.97100E+03
 9.52961E+02	 1.00690E+04
 9.54734E+02	 1.00870E+04
 9.56507E+02	 1.00970E+04
 9.58279E+02	 1.01100E+04
 9.60050E+02	 1.00590E+04
 9.61821E+02	 1.01140E+04
 9.63591E+02	 1.00390E+04
 9.65360E+02	 9.97700E+03
 9.67129E+02	 9.98300E+03
 9.68897E+02	 1.02820E+04
 9.70665E+02	 1.02500E+04
 9.72432E+02	 1.01160E+04
 9.74198E+02	 9.91300E+03
 9.75964E+02	 9.84700E+03
 9.77729E+02	 9.92300E+03
 9.79494E+02	 9.94000E+03
 9.81258E+02	 1.01010E+04
 9.83021E+02	 1.01560E+04
 9.84784E+02	 1.02030E+04
 9.86546E+02	 1.00670E+04
 9.88307E+02	 9.95500E+03
 9.90068E+02	 9.95100E+03
 9.91828E+02	 9.96400E+03
 9.93588E+02	 9.84000E+03
 9.95347E+02	 9.91500E+03
 9.97105E+02	 9.77700E+03
 9.98863E+02	 9.82400E+03
 1.00062E+03	 9.69600E+03
 1.00238E+03	 9.62900E+03
 1.00413E+03	 9.62100E+03
 1.00589E+03	 9.58400E+03
 1.00764E+03	 9.65200E+03
 1.00940E+03	 9.65700E+03
 1.01115E+03	 9.59400E+03
 1.01290E+03	 9.60700E+03
 1.01466E+03	 9.63200E+03
 1.01641E+03	 9.47100E+03
 1.01816E+03	 9.41200E+03
 1.01991E+03	 9.66800E+03
 1.02166E+03	 9.69800E+03
 1.02341E+03	 9.57400E+03
 1.02516E+03	 9.66100E+03
 1.02691E+03	 9.77300E+03
 1.02865E+03	 9.76700E+03
 1.03040E+03	 9.59100E+03
 1.03215E+03	 9.67100E+03
 1.03389E+03	 9.65600E+03
 1.03564E+03	 9.73000E+03
 1.03738E+03	 9.80000E+03
 1.03913E+03	 9.82400E+03
 1.04087E+03	 9.83100E+03
 1.04261E+03	 9.99900E+03
 1.04435E+03	 1.00410E+04
 1.04610E+03	 1.01290E+04
 1.04784E+03	 1.03260E+04
 1.04958E+03	 1.00910E+04
 1.05132E+03	 1.00620E+04
 1.05306E+03	 1.01300E+04
 1.05479E+03	 1.00050E+04
 1.05653E+03	 1.00040E+04
 1.05827E+03	 9.98300E+03
 1.06001E+03	 1.00260E+04
 1.06174E+03	 1.01200E+04
 1.06348E+03	 1.00850E+04
 1.06521E+03	 9.87600E+03
 1.06695E+03	 9.90700E+03
 1.06868E+03	 1.00400E+04
 1.07041E+03	 1.00870E+04
 1.07215E+03	 1.01210E+04
 1.07388E+03	 1.00720E+04
 1.07561E+03	 9.89200E+03
 1.07734E+03	 9.99700E+03
 1.07907E+03	 1.00740E+04
 1.08080E+03	 1.00900E+04
 1.08253E+03	 1.00900E+04
 1.08426E+03	 9.95800E+03
 1.08598E+03	 1.00300E+04
 1.08771E+03	 9.87500E+03
 1.08944E+03	 9.77800E+03
 1.09116E+03	 9.76700E+03
 1.09289E+03	 9.77700E+03
 1.09461E+03	 9.76000E+03
 1.09634E+03	 9.66100E+03
 1.09806E+03	 9.66300E+03
 1.09978E+03	 9.61000E+03
 1.10151E+03	 9.69700E+03
 1.10323E+03	 9.53800E+03
 1.10495E+03	 9.60400E+03
 1.10667E+03	 9.35200E+03
 1.10839E+03	 9.29100E+03
 1.11011E+03	 9.23700E+03
 1.11183E+03	 9.21100E+03
 1.11355E+03	 9.14300E+03
 1.11526E+03	 9.01300E+03
 1.11698E+03	 9.13200E+03
 1.11870E+03	 9.20700E+03
 1.12041E+03	 9.04300E+03
 1.12213E+03	 8.88600E+03
 1.12384E+03	 8.87500E+03
 1.12556E+03	 8.98800E+03
 1.12727E+03	 9.00600E+03
 1.12898E+03	 9.02100E+03
 1.13070E+03	 8.98500E+03
 1.13241E+03	 9.08800E+03
 1.13412E+03	 9.01900E+03
 1.13583E+03	 9.06000E+03
 1.13754E+03	 9.10200E+03
 1.13925E+03	 8.99700E+03
 1.14096E+03	 9.01500E+03
 1.14267E+03	 9.14200E+03
 1.14437E+03	 9.09700E+03
 1.14608E+03	 9.07300E+03
 1.14779E+03	 9.05100E+03
 1.14949E+03	 8.94100E+03
 1.15120E+03	 8.98100E+03
 1.15290E+03	 8.99900E+03
 1.15461E+03	 8.98300E+03
 1.15631E+03	 9.04200E+03
 1.15801E+03	 8.87800E+03
 1.15972E+03	 8.97800E+03
 1.16142E+03	 9.05400E+03
 1.16312E+03	 9.01600E+03
 1.16482E+03	 9.03700E+03
 1.16652E+03	 8.97100E+03
 1.16822E+03	 8.96400E+03
 1.16992E+03	 8.99400E+03
 1.17162E+03	 9.03400E+03
 1.17331E+03	 8.99900E+03
 1.17501E+03	 8.81200E+03
 1.17671E+03	 8.87800E+03
 1.17840E+03	 8.79300E+03
 1.18010E+03	 8.78700E+03
 1.18179E+03	 8.94500E+03
 1.18349E+03	 8.79000E+03
 1.18518E+03	 8.84900E+03
 1.18688E+03	 8.75500E+03
 1.18857E+03	 8.57800E+03
 1.19026E+03	 8.64700E+03
 1.19195E+03	 8.88400E+03
 1.19364E+03	 8.95400E+03
 1.19533E+03	 8.99600E+03
 1.19702E+03	 9.04500E+03
 1.19871E+03	 8.82000E+03
 1.20040E+03	 8.72300E+03
 1.20209E+03	 8.56600E+03
 1.20377E+03	 8.70700E+03
 1.20546E+03	 8.72700E+03
 1.20715E+03	 8.80000E+03
 1.20883E+03	 8.80000E+03
 1.21052E+03	 8.74400E+03
 1.21220E+03	 8.64500E+03
 1.21389E+03	 8.76200E+03
 1.21557E+03	 8.83900E+03
 1.21725E+03	 8.87800E+03
 1.21893E+03	 8.73800E+03
 1.22061E+03	 8.79200E+03
 1.22230E+03	 8.71800E+03
 1.22398E+03	 8.72100E+03
 1.22566E+03	 8.74100E+03
 1.22733E+03	 8.82100E+03
 1.22901E+03	 8.82700E+03
 1.23069E+03	 8.82000E+03
 1.23237E+03	 8.78300E+03
 1.23405E+03	 8.79300E+03
 1.23572E+03	 8.84400E+03
 1.23740E+03	 8.97600E+03
 1.23907E+03	 8.94300E+03
 1.24075E+03	 8.97600E+03
 1.24242E+03	 8.90900E+03
 1.24410E+03	 8.96800E+03
 1.24577E+03	 8.98300E+03
 1.24744E+03	 9.05700E+03
 1.24911E+03	 9.13600E+03
 1.25078E+03	 9.06000E+03
 1.25245E+03	 9.05300E+03
 1.25412E+03	 9.23100E+03
 1.25579E+03	 9.08200E+03
 1.25746E+03	 9.10900E+03
 1.25913E+03	 9.07000E+03
 1.26080E+03	 8.88700E+03
 1.26247E+03	 8.99800E+03
 1.26413E+03	 9.04600E+03
 1.26580E+03	 9.04100E+03
 1.26746E+03	 9.06200E+03
 1.26913E+03	 8.90600E+03
 1.27079E+03	 8.76300E+03
 1.27246E+03	 8.62900E+03
 1.27412E+03	 8.88600E+03
 1.27578E+03	 8.76800E+03
 1.27745E+03	 8.91600E+03
 1.27911E+03	 8.73000E+03
 1.28077E+03	 8.76600E+03
 1.28243E+03	 8.65700E+03
 1.28409E+03	 8.68600E+03
 1.28575E+03	 8.61400E+03
 1.28741E+03	 8.63000E+03
 1.28906E+03	 8.68900E+03
 1.29072E+03	 8.66000E+03
 1.29238E+03	 8.72400E+03
 1.29403E+03	 8.78400E+03
 1.29569E+03	 8.75400E+03
 1.29735E+03	 8.63700E+03
 1.29900E+03	 8.65600E+03
 1.30066E+03	 8.68000E+03
 1.30231E+03	 8.71800E+03
 1.30396E+03	 8.75200E+03
 1.30561E+03	 8.68900E+03
 1.30727E+03	 8.59900E+03
 1.30892E+03	 8.60200E+03
 1.31057E+03	 8.62400E+03
 1.31222E+03	 8.68300E+03
 1.31387E+03	 8.56700E+03
 1.31552E+03	 8.67100E+03
 1.31717E+03	 8.64700E+03
 1.31881E+03	 8.60700E+03
 1.32046E+03	 8.59300E+03
 1.32211E+03	 8.59400E+03
 1.32375E+03	 8.56100E+03
 1.32540E+03	 8.60400E+03
 1.32705E+03	 8.56900E+03
 1.32869E+03	 8.65900E+03
 1.33033E+03	 8.70700E+03
 1.33198E+03	 8.67700E+03
 1.33362E+03	 8.57500E+03
 1.33526E+03	 8.55800E+03
 1.33690E+03	 8.57700E+03
 1.33855E+03	 8.60900E+03
 1.34019E+03	 8.49200E+03
 1.34183E+03	 8.48200E+03
 1.34347E+03	 8.66100E+03
 1.34511E+03	 8.80400E+03
 1.34674E+03	 8.81600E+03
 1.34838E+03	 8.88400E+03
 1.35002E+03	 8.79200E+03
 1.35166E+03	 8.84300E+03
 1.35329E+03	 8.87500E+03
 1.35493E+03	 8.82100E+03
 1.35656E+03	 8.55000E+03
 1.35820E+03	 8.66800E+03
 1.35983E+03	 8.57100E+03
 1.36147E+03	 8.60100E+03
 1.36310E+03	 8.57900E+03
 1.36473E+03	 8.73900E+03
 1.36636E+03	 8.63200E+03
 1.36799E+03	 8.58800E+03
 1.36963E+03	 8.75800E+03
 1.37126E+03	 8.52900E+03
 1.37289E+03	 8.45600E+03
 1.37451E+03	 8.36400E+03
 1.37614E+03	 8.43800E+03
 1.37777E+03	 8.44300E+03
 1.37940E+03	 8.50400E+03
 1.38102E+03	 8.47000E+03
 1.38265E+03	 8.42800E+03
 1.38428E+03	 8.32400E+03
 1.38590E+03	 8.36600E+03
 1.38753E+03	 8.27900E+03
 1.38915E+03	 8.45800E+03
 1.39077E+03	 8.45900E+03
 1.39240E+03	 8.47000E+03
 1.39402E+03	 8.44500E+03
 1.39564E+03	 8.37900E+03
 1.39726E+03	 8.30500E+03
 1.39888E+03	 8.27300E+03
 1.40050E+03	 8.31000E+03
 1.40212E+03	 8.21500E+03
 1.40374E+03	 8.44400E+03
 1.40536E+03	 8.28400E+03
 1.40698E+03	 8.28600E+03
 1.40860E+03	 8.15400E+03
 1.41021E+03	 8.15500E+03
 1.41183E+03	 8.14200E+03
 1.41345E+03	 8.18400E+03
 1.41506E+03	 8.30400E+03
 1.41668E+03	 8.38400E+03
 1.41829E+03	 8.32300E+03
 1.41991E+03	 8.41200E+03
 1.42152E+03	 8.28500E+03
 1.42313E+03	 8.32100E+03
 1.42474E+03	 8.30300E+03
 1.42635E+03	 8.28300E+03
 1.42797E+03	 8.41000E+03
 1.42958E+03	 8.30100E+03
 1.43119E+03	 8.04100E+03
 1.43280E+03	 8.08600E+03
 1.43440E+03	 8.04800E+03
 1.43601E+03	 8.12400E+03
 1.43762E+03	 8.19600E+03
 1.43923E+03	 8.24500E+03
 1.44083E+03	 8.21200E+03
 1.44244E+03	 8.21200E+03
 1.44405E+03	 8.18400E+03
 1.44565E+03	 8.17000E+03
 1.44726E+03	 8.14600E+03
 1.44886E+03	 8.03600E+03
 1.45046E+03	 8.07400E+03
 1.45207E+03	 8.34200E+03
 1.45367E+03	 8.33800E+03
 1.45527E+03	 8.38400E+03
 1.45687E+03	 8.25500E+03
 1.45847E+03	 8.18900E+03
 1.46007E+03	 8.21600E+03
 1.46167E+03	 8.37300E+03
 1.46327E+03	 8.49300E+03
 1.46487E+03	 8.57400E+03
 1.46647E+03	 8.68200E+03
 1.46806E+03	 8.76500E+03
 1.46966E+03	 8.82000E+03
 1.47126E+03	 8.81500E+03
 1.47285E+03	 8.65800E+03
 1.47445E+03	 8.71000E+03
 1.47604E+03	 8.60600E+03
 1.47764E+03	 8.54300E+03
 1.47923E+03	 8.38200E+03
 1.48082E+03	 8.32900E+03
 1.48242E+03	 8.34400E+03
 1.48401E+03	 8.22400E+03
 1.48560E+03	 8.27700E+03
 1.48719E+03	 8.09300E+03
 1.48878E+03	 8.11700E+03
 1.49037E+03	 8.05500E+03
 1.49196E+03	 7.92100E+03
 1.49355E+03	 7.68300E+03
 1.49514E+03	 7.76300E+03
 1.49673E+03	 7.77300E+03
 1.49831E+03	 7.87900E+03
 1.49990E+03	 7.85700E+03
 1.50149E+03	 7.74600E+03
 1.50307E+03	 7.74400E+03
 1.50466E+03	 7.64800E+03
 1.50624E+03	 7.60300E+03
 1.50783E+03	 7.61000E+03
 1.50941E+03	 7.78400E+03
 1.51099E+03	 7.71000E+03
 1.51257E+03	 7.68100E+03
 1.51416E+03	 7.69400E+03
 1.51574E+03	 7.78700E+03
 1.51732E+03	 7.78800E+03
 1.51890E+03	 7.72600E+03
 1.52048E+03	 7.64800E+03
 1.52206E+03	 7.63700E+03
 1.52364E+03	 7.60300E+03
 1.52522E+03	 7.70800E+03
 1.52679E+03	 7.64000E+03
 1.52837E+03	 7.68500E+03
 1.52995E+03	 7.64900E+03
 1.53152E+03	 7.67500E+03
 1.53310E+03	 7.57800E+03
 1.53467E+03	 7.49700E+03
 1.53625E+03	 7.56600E+03
 1.53782E+03	 7.65300E+03
 1.53940E+03	 7.67900E+03
 1.54097E+03	 7.66100E+03
 1.54254E+03	 7.67500E+03
 1.54411E+03	 7.49800E+03
 1.54568E+03	 7.55300E+03
 1.54725E+03	 7.58900E+03
 1.54882E+03	 7.52000E+03
 1.55039E+03	 7.64000E+03
 1.55196E+03	 7.43600E+03
 1.55353E+03	 7.56600E+03
 1.55510E+03	 7.53100E+03
 1.55667E+03	 7.55900E+03
 1.55824E+03	 7.55500E+03
 1.55980E+03	 7.47800E+03
 1.56137E+03	 7.53200E+03
 1.56293E+03	 7.50900E+03
 1.56450E+03	 7.51500E+03
 1.56606E+03	 7.44200E+03
 1.56763E+03	 7.48900E+03
 1.56919E+03	 7.46200E+03
 1.57075E+03	 7.39000E+03
 1.57232E+03	 7.57300E+03
 1.57388E+03	 7.49400E+03
 1.57544E+03	 7.50400E+03
 1.57700E+03	 7.59100E+03
 1.57856E+03	 7.46500E+03
 1.58012E+03	 7.53900E+03
 1.58168E+03	 7.44300E+03
 1.58324E+03	 7.41800E+03
 1.58480E+03	 7.42100E+03
 1.58635E+03	 7.47900E+03
 1.58791E+03	 7.41000E+03
 1.58947E+03	 7.46100E+03
 1.59102E+03	 7.49100E+03
 1.59258E+03	 7.48600E+03
 1.59413E+03	 7.46800E+03
 1.59569E+03	 7.55000E+03
 1.59724E+03	 7.52300E+03
 1.59880E+03	 7.43000E+03
 1.60035E+03	 7.41100E+03
 1.60190E+03	 7.38200E+03
 1.60345E+03	 7.48800E+03
 1.60501E+03	 7.53600E+03
 1.60656E+03	 7.38300E+03
 1.60811E+03	 7.40900E+03
 1.60966E+03	 7.38300E+03
 1.61121E+03	 7.33200E+03
 1.61276E+03	 7.35300E+03
 1.61430E+03	 7.40000E+03
 1.61585E+03	 7.40600E+03
 1.61740E+03	 7.48400E+03
 1.61895E+03	 7.44600E+03
 1.62049E+03	 7.30000E+03
 1.62204E+03	 7.30000E+03
 1.62358E+03	 7.26600E+03
 1.62513E+03	 7.33100E+03
 1.62667E+03	 7.26800E+03
 1.62822E+03	 7.34300E+03
 1.62976E+03	 7.36100E+03
 1.63130E+03	 7.19800E+03
 1.63284E+03	 7.28900E+03
 1.63439E+03	 7.30600E+03
 1.63593E+03	 7.25300E+03
 1.63747E+03	 7.28700E+03
 1.63901E+03	 7.27900E+03
 1.64055E+03	 7.16300E+03
 1.64209E+03	 7.21600E+03
 1.64362E+03	 7.26100E+03
 1.64516E+03	 7.22700E+03
 1.64670E+03	 7.25800E+03
 1.64824E+03	 7.16500E+03
 1.64977E+03	 7.10300E+03
 1.65131E+03	 6.99500E+03
 1.65284E+03	 6.96600E+03
 1.65438E+03	 7.01500E+03
 1.65591E+03	 7.02700E+03
 1.65745E+03	 7.04600E+03
 1.65898E+03	 7.17300E+03
 1.66051E+03	 7.15500E+03
 1.66205E+03	 7.18000E+03
 1.66358E+03	 7.12900E+03
 1.66511E+03	 7.16100E+03
 1.66664E+03	 7.14700E+03
 1.66817E+03	 7.22700E+03
 1.66970E+03	 7.03700E+03
 1.67123E+03	 7.01100E+03
 1.67276E+03	 6.91700E+03
 1.67429E+03	 7.05800E+03
 1.67582E+03	 7.05900E+03
 1.67734E+03	 7.01700E+03
 1.67887E+03	 7.01300E+03
 1.68040E+03	 7.01100E+03
 1.68192E+03	 7.04500E+03
 1.68345E+03	 7.03400E+03
 1.68497E+03	 7.04600E+03
 1.68650E+03	 7.05800E+03
 1.68802E+03	 6.97900E+03
 1.68954E+03	 7.03400E+03
 1.69107E+03	 6.95900E+03
 1.69259E+03	 6.87100E+03
 1.69411E+03	 6.96500E+03
 1.69563E+03	 6.92300E+03
 1.69715E+03	 6.86900E+03
 1.69867E+03	 6.89800E+03
 1.70019E+03	 6.90100E+03
 1.70171E+03	 6.90200E+03
 1.70323E+03	 6.88000E+03
 1.70475E+03	 6.84700E+03
 1.70626E+03	 6.96000E+03
 1.70778E+03	 6.87800E+03
 1.70930E+03	 6.94000E+03
 1.71081E+03	 6.92700E+03
 1.71233E+03	 6.87800E+03
 1.71385E+03	 6.95100E+03
 1.71536E+03	 6.91900E+03
 1.71687E+03	 6.92100E+03
 1.71839E+03	 6.86200E+03
 1.71990E+03	 6.76200E+03
 1.72141E+03	 6.84300E+03
 1.72293E+03	 6.74500E+03
 1.72444E+03	 6.74800E+03
 1.72595E+03	 6.76200E+03
 1.72746E+03	 6.84500E+03
 1.72897E+03	 6.77600E+03
 1.73048E+03	 6.78100E+03
 1.73199E+03	 6.74900E+03
 1.73350E+03	 6.78700E+03
 1.73500E+03	 6.82600E+03
 1.73651E+03	 6.87600E+03
 1.73802E+03	 6.78700E+03
 1.73953E+03	 6.85400E+03
 1.74103E+03	 6.87800E+03
 1.74254E+03	 6.88900E+03
 1.74404E+03	 6.79200E+03
 1.74555E+03	 6.69700E+03
 1.74705E+03	 6.68600E+03
 1.74856E+03	 6.73700E+03
 1.75006E+03	 6.70500E+03
 1.75156E+03	 6.74600E+03
 1.75306E+03	 6.82200E+03
 1.75457E+03	 6.75400E+03
 1.75607E+03	 6.67400E+03
 1.75757E+03	 6.71900E+03
 1.75907E+03	 6.65800E+03
 1.76057E+03	 6.72500E+03
 1.76207E+03	 6.74400E+03
 1.76356E+03	 6.73100E+03
 1.76506E+03	 6.71000E+03
 1.76656E+03	 6.75600E+03
 1.76806E+03	 6.82400E+03
 1.76955E+03	 6.76100E+03
 1.77105E+03	 6.73500E+03
 1.77255E+03	 6.74300E+03
 1.77404E+03	 6.75100E+03
 1.77554E+03	 6.68900E+03
 1.77703E+03	 6.66700E+03
 1.77852E+03	 6.64300E+03
